{
    "data": [
        {
            "datasetId": 74,
            "startTime": "2024-05-13T09:30:00.000Z",
            "endTime": "2024-05-13T09:45:00.000Z",
            "value": 643.841
        },
        {
            "datasetId": 74,
            "startTime": "2024-05-13T09:15:00.000Z",
            "endTime": "2024-05-13T09:30:00.000Z",
            "value": 657.649
        },
        {
            "datasetId": 74,
            "startTime": "2024-05-13T09:00:00.000Z",
            "endTime": "2024-05-13T09:15:00.000Z",
            "value": 663.725
        },
        {
            "datasetId": 74,
            "startTime": "2024-05-13T08:45:00.000Z",
            "endTime": "2024-05-13T09:00:00.000Z",
            "value": 666.3890000000001
        },
        {
            "datasetId": 74,
            "startTime": "2024-05-13T08:30:00.000Z",
            "endTime": "2024-05-13T08:45:00.000Z",
            "value": 669.013
        },
        {
            "datasetId": 74,
            "startTime": "2024-05-13T08:15:00.000Z",
            "endTime": "2024-05-13T08:30:00.000Z",
            "value": 662.1170000000001
        },
        {
            "datasetId": 74,
            "startTime": "2024-05-13T08:00:00.000Z",
            "endTime": "2024-05-13T08:15:00.000Z",
            "value": 662.174
        },
        {
            "datasetId": 74,
            "startTime": "2024-05-13T07:45:00.000Z",
            "endTime": "2024-05-13T08:00:00.000Z",
            "value": 668.186
        },
        {
            "datasetId": 74,
            "startTime": "2024-05-13T07:30:00.000Z",
            "endTime": "2024-05-13T07:45:00.000Z",
            "value": 658.461
        },
        {
            "datasetId": 74,
            "startTime": "2024-05-13T07:15:00.000Z",
            "endTime": "2024-05-13T07:30:00.000Z",
            "value": 656.796
        },
        {
            "datasetId": 74,
            "startTime": "2024-05-13T07:00:00.000Z",
            "endTime": "2024-05-13T07:15:00.000Z",
            "value": 670.6120000000001
        },
        {
            "datasetId": 74,
            "startTime": "2024-05-13T06:45:00.000Z",
            "endTime": "2024-05-13T07:00:00.000Z",
            "value": 680.123
        },
        {
            "datasetId": 74,
            "startTime": "2024-05-13T06:30:00.000Z",
            "endTime": "2024-05-13T06:45:00.000Z",
            "value": 684.461
        },
        {
            "datasetId": 74,
            "startTime": "2024-05-13T06:15:00.000Z",
            "endTime": "2024-05-13T06:30:00.000Z",
            "value": 685.3000000000001
        },
        {
            "datasetId": 74,
            "startTime": "2024-05-13T06:00:00.000Z",
            "endTime": "2024-05-13T06:15:00.000Z",
            "value": 680.2750000000001
        },
        {
            "datasetId": 74,
            "startTime": "2024-05-13T05:45:00.000Z",
            "endTime": "2024-05-13T06:00:00.000Z",
            "value": 668.2950000000001
        },
        {
            "datasetId": 74,
            "startTime": "2024-05-13T05:30:00.000Z",
            "endTime": "2024-05-13T05:45:00.000Z",
            "value": 662.2090000000001
        },
        {
            "datasetId": 74,
            "startTime": "2024-05-13T05:15:00.000Z",
            "endTime": "2024-05-13T05:30:00.000Z",
            "value": 664.104
        },
        {
            "datasetId": 74,
            "startTime": "2024-05-13T05:00:00.000Z",
            "endTime": "2024-05-13T05:15:00.000Z",
            "value": 662.6100000000001
        },
        {
            "datasetId": 74,
            "startTime": "2024-05-13T04:45:00.000Z",
            "endTime": "2024-05-13T05:00:00.000Z",
            "value": 656.873
        },
        {
            "datasetId": 74,
            "startTime": "2024-05-13T04:30:00.000Z",
            "endTime": "2024-05-13T04:45:00.000Z",
            "value": 654.094
        },
        {
            "datasetId": 74,
            "startTime": "2024-05-13T04:15:00.000Z",
            "endTime": "2024-05-13T04:30:00.000Z",
            "value": 650.1350000000001
        },
        {
            "datasetId": 74,
            "startTime": "2024-05-13T04:00:00.000Z",
            "endTime": "2024-05-13T04:15:00.000Z",
            "value": 641.84
        },
        {
            "datasetId": 74,
            "startTime": "2024-05-13T03:45:00.000Z",
            "endTime": "2024-05-13T04:00:00.000Z",
            "value": 619.894
        },
        {
            "datasetId": 74,
            "startTime": "2024-05-13T03:30:00.000Z",
            "endTime": "2024-05-13T03:45:00.000Z",
            "value": 602.447
        },
        {
            "datasetId": 74,
            "startTime": "2024-05-13T03:15:00.000Z",
            "endTime": "2024-05-13T03:30:00.000Z",
            "value": 596.393
        },
        {
            "datasetId": 74,
            "startTime": "2024-05-13T03:00:00.000Z",
            "endTime": "2024-05-13T03:15:00.000Z",
            "value": 586.426
        },
        {
            "datasetId": 74,
            "startTime": "2024-05-13T02:45:00.000Z",
            "endTime": "2024-05-13T03:00:00.000Z",
            "value": 574.1270000000001
        },
        {
            "datasetId": 74,
            "startTime": "2024-05-13T02:30:00.000Z",
            "endTime": "2024-05-13T02:45:00.000Z",
            "value": 570.1510000000001
        },
        {
            "datasetId": 74,
            "startTime": "2024-05-13T02:15:00.000Z",
            "endTime": "2024-05-13T02:30:00.000Z",
            "value": 567.474
        },
        {
            "datasetId": 74,
            "startTime": "2024-05-13T02:00:00.000Z",
            "endTime": "2024-05-13T02:15:00.000Z",
            "value": 564.746
        },
        {
            "datasetId": 74,
            "startTime": "2024-05-13T01:45:00.000Z",
            "endTime": "2024-05-13T02:00:00.000Z",
            "value": 562.9770000000001
        },
        {
            "datasetId": 74,
            "startTime": "2024-05-13T01:30:00.000Z",
            "endTime": "2024-05-13T01:45:00.000Z",
            "value": 564.7760000000001
        },
        {
            "datasetId": 74,
            "startTime": "2024-05-13T01:15:00.000Z",
            "endTime": "2024-05-13T01:30:00.000Z",
            "value": 567.421
        },
        {
            "datasetId": 74,
            "startTime": "2024-05-13T01:00:00.000Z",
            "endTime": "2024-05-13T01:15:00.000Z",
            "value": 570.182
        },
        {
            "datasetId": 74,
            "startTime": "2024-05-13T00:45:00.000Z",
            "endTime": "2024-05-13T01:00:00.000Z",
            "value": 568.45
        },
        {
            "datasetId": 74,
            "startTime": "2024-05-13T00:30:00.000Z",
            "endTime": "2024-05-13T00:45:00.000Z",
            "value": 567.3340000000001
        },
        {
            "datasetId": 74,
            "startTime": "2024-05-13T00:15:00.000Z",
            "endTime": "2024-05-13T00:30:00.000Z",
            "value": 567.5010000000001
        },
        {
            "datasetId": 74,
            "startTime": "2024-05-13T00:00:00.000Z",
            "endTime": "2024-05-13T00:15:00.000Z",
            "value": 566.257
        },
        {
            "datasetId": 74,
            "startTime": "2024-05-12T23:45:00.000Z",
            "endTime": "2024-05-13T00:00:00.000Z",
            "value": 564.8580000000001
        },
        {
            "datasetId": 74,
            "startTime": "2024-05-12T23:30:00.000Z",
            "endTime": "2024-05-12T23:45:00.000Z",
            "value": 566.1020000000001
        },
        {
            "datasetId": 74,
            "startTime": "2024-05-12T23:15:00.000Z",
            "endTime": "2024-05-12T23:30:00.000Z",
            "value": 568.744
        },
        {
            "datasetId": 74,
            "startTime": "2024-05-12T23:00:00.000Z",
            "endTime": "2024-05-12T23:15:00.000Z",
            "value": 570.9250000000001
        },
        {
            "datasetId": 74,
            "startTime": "2024-05-12T22:45:00.000Z",
            "endTime": "2024-05-12T23:00:00.000Z",
            "value": 566.3270000000001
        },
        {
            "datasetId": 74,
            "startTime": "2024-05-12T22:30:00.000Z",
            "endTime": "2024-05-12T22:45:00.000Z",
            "value": 570.054
        },
        {
            "datasetId": 74,
            "startTime": "2024-05-12T22:15:00.000Z",
            "endTime": "2024-05-12T22:30:00.000Z",
            "value": 569.773
        },
        {
            "datasetId": 74,
            "startTime": "2024-05-12T22:00:00.000Z",
            "endTime": "2024-05-12T22:15:00.000Z",
            "value": 575.066
        },
        {
            "datasetId": 74,
            "startTime": "2024-05-12T21:45:00.000Z",
            "endTime": "2024-05-12T22:00:00.000Z",
            "value": 574.774
        },
        {
            "datasetId": 74,
            "startTime": "2024-05-12T21:30:00.000Z",
            "endTime": "2024-05-12T21:45:00.000Z",
            "value": 574.379
        },
        {
            "datasetId": 74,
            "startTime": "2024-05-12T21:15:00.000Z",
            "endTime": "2024-05-12T21:30:00.000Z",
            "value": 583.775
        },
        {
            "datasetId": 74,
            "startTime": "2024-05-12T21:00:00.000Z",
            "endTime": "2024-05-12T21:15:00.000Z",
            "value": 594.824
        },
        {
            "datasetId": 74,
            "startTime": "2024-05-12T20:45:00.000Z",
            "endTime": "2024-05-12T21:00:00.000Z",
            "value": 596.022
        },
        {
            "datasetId": 74,
            "startTime": "2024-05-12T20:30:00.000Z",
            "endTime": "2024-05-12T20:45:00.000Z",
            "value": 590.5350000000001
        },
        {
            "datasetId": 74,
            "startTime": "2024-05-12T20:15:00.000Z",
            "endTime": "2024-05-12T20:30:00.000Z",
            "value": 595.5060000000001
        },
        {
            "datasetId": 74,
            "startTime": "2024-05-12T20:00:00.000Z",
            "endTime": "2024-05-12T20:15:00.000Z",
            "value": 607.639
        },
        {
            "datasetId": 74,
            "startTime": "2024-05-12T19:45:00.000Z",
            "endTime": "2024-05-12T20:00:00.000Z",
            "value": 601.181
        },
        {
            "datasetId": 74,
            "startTime": "2024-05-12T19:30:00.000Z",
            "endTime": "2024-05-12T19:45:00.000Z",
            "value": 598.208
        },
        {
            "datasetId": 74,
            "startTime": "2024-05-12T19:15:00.000Z",
            "endTime": "2024-05-12T19:30:00.000Z",
            "value": 598.0880000000001
        },
        {
            "datasetId": 74,
            "startTime": "2024-05-12T19:00:00.000Z",
            "endTime": "2024-05-12T19:15:00.000Z",
            "value": 590.7620000000001
        },
        {
            "datasetId": 74,
            "startTime": "2024-05-12T18:45:00.000Z",
            "endTime": "2024-05-12T19:00:00.000Z",
            "value": 583.71
        },
        {
            "datasetId": 74,
            "startTime": "2024-05-12T18:30:00.000Z",
            "endTime": "2024-05-12T18:45:00.000Z",
            "value": 587.8439999999999
        },
        {
            "datasetId": 74,
            "startTime": "2024-05-12T18:15:00.000Z",
            "endTime": "2024-05-12T18:30:00.000Z",
            "value": 590.378
        },
        {
            "datasetId": 74,
            "startTime": "2024-05-12T18:00:00.000Z",
            "endTime": "2024-05-12T18:15:00.000Z",
            "value": 592.391
        },
        {
            "datasetId": 74,
            "startTime": "2024-05-12T17:45:00.000Z",
            "endTime": "2024-05-12T18:00:00.000Z",
            "value": 594.909
        },
        {
            "datasetId": 74,
            "startTime": "2024-05-12T17:30:00.000Z",
            "endTime": "2024-05-12T17:45:00.000Z",
            "value": 594.296
        },
        {
            "datasetId": 74,
            "startTime": "2024-05-12T17:15:00.000Z",
            "endTime": "2024-05-12T17:30:00.000Z",
            "value": 596.24
        },
        {
            "datasetId": 74,
            "startTime": "2024-05-12T17:00:00.000Z",
            "endTime": "2024-05-12T17:15:00.000Z",
            "value": 589.807
        },
        {
            "datasetId": 74,
            "startTime": "2024-05-12T16:45:00.000Z",
            "endTime": "2024-05-12T17:00:00.000Z",
            "value": 589.8430000000001
        },
        {
            "datasetId": 74,
            "startTime": "2024-05-12T16:30:00.000Z",
            "endTime": "2024-05-12T16:45:00.000Z",
            "value": 593.3470000000001
        },
        {
            "datasetId": 74,
            "startTime": "2024-05-12T16:15:00.000Z",
            "endTime": "2024-05-12T16:30:00.000Z",
            "value": 600.1510000000001
        },
        {
            "datasetId": 74,
            "startTime": "2024-05-12T16:00:00.000Z",
            "endTime": "2024-05-12T16:15:00.000Z",
            "value": 592.484
        },
        {
            "datasetId": 74,
            "startTime": "2024-05-12T15:45:00.000Z",
            "endTime": "2024-05-12T16:00:00.000Z",
            "value": 589.7760000000001
        },
        {
            "datasetId": 74,
            "startTime": "2024-05-12T15:30:00.000Z",
            "endTime": "2024-05-12T15:45:00.000Z",
            "value": 579.139
        },
        {
            "datasetId": 74,
            "startTime": "2024-05-12T15:15:00.000Z",
            "endTime": "2024-05-12T15:30:00.000Z",
            "value": 585.7520000000001
        },
        {
            "datasetId": 74,
            "startTime": "2024-05-12T15:00:00.000Z",
            "endTime": "2024-05-12T15:15:00.000Z",
            "value": 599.9050000000001
        },
        {
            "datasetId": 74,
            "startTime": "2024-05-12T14:45:00.000Z",
            "endTime": "2024-05-12T15:00:00.000Z",
            "value": 601.7420000000001
        },
        {
            "datasetId": 74,
            "startTime": "2024-05-12T14:30:00.000Z",
            "endTime": "2024-05-12T14:45:00.000Z",
            "value": 584.298
        },
        {
            "datasetId": 74,
            "startTime": "2024-05-12T14:15:00.000Z",
            "endTime": "2024-05-12T14:30:00.000Z",
            "value": 575.3560000000001
        },
        {
            "datasetId": 74,
            "startTime": "2024-05-12T14:00:00.000Z",
            "endTime": "2024-05-12T14:15:00.000Z",
            "value": 564.9540000000001
        },
        {
            "datasetId": 74,
            "startTime": "2024-05-12T13:45:00.000Z",
            "endTime": "2024-05-12T14:00:00.000Z",
            "value": 563.0060000000001
        },
        {
            "datasetId": 74,
            "startTime": "2024-05-12T13:30:00.000Z",
            "endTime": "2024-05-12T13:45:00.000Z",
            "value": 559.357
        },
        {
            "datasetId": 74,
            "startTime": "2024-05-12T13:15:00.000Z",
            "endTime": "2024-05-12T13:30:00.000Z",
            "value": 562.9010000000001
        },
        {
            "datasetId": 74,
            "startTime": "2024-05-12T13:00:00.000Z",
            "endTime": "2024-05-12T13:15:00.000Z",
            "value": 573.643
        },
        {
            "datasetId": 74,
            "startTime": "2024-05-12T12:45:00.000Z",
            "endTime": "2024-05-12T13:00:00.000Z",
            "value": 576.769
        },
        {
            "datasetId": 74,
            "startTime": "2024-05-12T12:30:00.000Z",
            "endTime": "2024-05-12T12:45:00.000Z",
            "value": 585.301
        },
        {
            "datasetId": 74,
            "startTime": "2024-05-12T12:15:00.000Z",
            "endTime": "2024-05-12T12:30:00.000Z",
            "value": 599.99
        },
        {
            "datasetId": 74,
            "startTime": "2024-05-12T12:00:00.000Z",
            "endTime": "2024-05-12T12:15:00.000Z",
            "value": 608.507
        },
        {
            "datasetId": 74,
            "startTime": "2024-05-12T11:45:00.000Z",
            "endTime": "2024-05-12T12:00:00.000Z",
            "value": 614.009
        },
        {
            "datasetId": 74,
            "startTime": "2024-05-12T11:30:00.000Z",
            "endTime": "2024-05-12T11:45:00.000Z",
            "value": 619.245
        },
        {
            "datasetId": 74,
            "startTime": "2024-05-12T11:15:00.000Z",
            "endTime": "2024-05-12T11:30:00.000Z",
            "value": 626.6510000000001
        },
        {
            "datasetId": 74,
            "startTime": "2024-05-12T11:00:00.000Z",
            "endTime": "2024-05-12T11:15:00.000Z",
            "value": 631.989
        },
        {
            "datasetId": 74,
            "startTime": "2024-05-12T10:45:00.000Z",
            "endTime": "2024-05-12T11:00:00.000Z",
            "value": 642.54
        },
        {
            "datasetId": 74,
            "startTime": "2024-05-12T10:30:00.000Z",
            "endTime": "2024-05-12T10:45:00.000Z",
            "value": 651.2080000000001
        },
        {
            "datasetId": 74,
            "startTime": "2024-05-12T10:15:00.000Z",
            "endTime": "2024-05-12T10:30:00.000Z",
            "value": 654.332
        },
        {
            "datasetId": 74,
            "startTime": "2024-05-12T10:00:00.000Z",
            "endTime": "2024-05-12T10:15:00.000Z",
            "value": 657.282
        },
        {
            "datasetId": 74,
            "startTime": "2024-05-12T09:45:00.000Z",
            "endTime": "2024-05-12T10:00:00.000Z",
            "value": 677.5970000000001
        },
        {
            "datasetId": 74,
            "startTime": "2024-05-12T09:30:00.000Z",
            "endTime": "2024-05-12T09:45:00.000Z",
            "value": 678.546
        },
        {
            "datasetId": 74,
            "startTime": "2024-05-12T09:15:00.000Z",
            "endTime": "2024-05-12T09:30:00.000Z",
            "value": 682.974
        },
        {
            "datasetId": 74,
            "startTime": "2024-05-12T09:00:00.000Z",
            "endTime": "2024-05-12T09:15:00.000Z",
            "value": 688.2470000000001
        },
        {
            "datasetId": 74,
            "startTime": "2024-05-12T08:45:00.000Z",
            "endTime": "2024-05-12T09:00:00.000Z",
            "value": 687.2640000000001
        }
    ],
    "pagination": {
        "total": 116967,
        "lastPage": 1170,
        "prevPage": null,
        "nextPage": 2,
        "perPage": 100,
        "currentPage": 1,
        "from": 0,
        "to": 100
    }
}